6
STUDENT,1,Ivan Ivanov,Computer Science,8855443322,21,41.5q
STUDENT,2,Petyr Petrov,Biology,8851443422,22,5.25,1
EMPLOYEE,3,Dimityr Ivanov,Waiter,8851643412,28,1200
EMPLOYEE,4,Naiden Tsonev,Waiter,8851243492,27,1200
EMPLOYEE,5,Stefan Cvetkov,Waiter,8851443422,26,1200
EMPLOYEE,6,Todor Aleksandrov,Cook,8151463422,25,2200
